337
848
299
653
894
285
902
67
699
781
818
500
540
940
350
113
778
796
690
281
306
288
445
613
207
898
965
818
244
301
380
463
250
868
123
13
322
609
358
551
760
770
211
991
21
22
641
328
839
806
697
962
711
566
371
655
622
570
272
372
997
549
375
700
152
901
303
966
173
355
48
879
727
926
774
402
154
7
595
372
786
695
687
372
941
764
718
471
377
963
47
186
355
119
109
24
629
711
596
348
947
582
625
776
539
540
462
459
126
538
433
306
759
59
320
13
119
373
587
114
227
215
445
519
731
581
392
520
431
854
421
977
600
967
549
238
824
168
207
6
687
651
14
173
211
134
14
872
851
150
148
348
704
259
583
175
72
475
814
624
81
390
966
147
271
337
816
748
258
950
582
549
7
944
696
819
72
388
40
66
51
923
821
672
900
460
472
927
888
6
329
700
399
51
116
629
781
336
918
216
349
322
638
838
722
322
810
326
556
721
687
613
699
918
188
628
995
76
156
50
61
897
94
112
693
281
691
83
45
690
635
28
582
223
564
700
341
56
72
587
314
449
489
343
353
310
164
594
482
744
224
164
763
793
673
23
392
324
861
858
668
128
578
421
223
643
498
211
348
403
629
438
230
896
2
636
702
501
913
814
4
653
39
298
807
930
190
158
50
368
456
781
622
385
161
79
254
193
239
776
379
658
79
738
924
362
796
774
177
815
782
750
892
677
181
142
93
295
801
65
153
553
512
880
470
142
962
989
310
485
861
942
277
358
248
93
184
163
318
843
772
874
921
708
152
398
255
478
793
60
998
100
344
92
360
616
201
942
283
828
227
891
696
185
95
566
189
793
815
639
649
342
164
831
396
622
603
707
73
310
94
447
512
27
987
27
948
927
659
267
630
305
825
992
948
205
44
956
218
235
707
530
331
236
629
364
628
398
826
15
685
56
217
969
773
169
918
627
713
204
471
713
448
29
532
814
126
951
969
436
291
262
90
433
200
479
426
293
917
432
151
464
313
106
989
8
127
939
877
712
738
8
522
45
189
111
545
410
634
82
306
179
484
280
535
510
34
221
584
765
59
850
568
896
953
71
455
872
212
509
965
559
988
672
736
498
569
50
530
280
602
715
267
60
753
403
846
694
656
186
610
729
42
270
319
557
880
572
931
476
438
971
761
498
250
817
996
397
0
817
277
20
533
236
863
36
206
620
467
86
403
136
661
316
254
601
306
778
410
852
205
57
386
232
484
278
616
623
731
834
894
353
717
226
396
107
43
759
6
639
11
544
249
709
413
867
883
639
996
331
220
35
832
314
389
49
580
640
27
676
929
308
511
430
358
623
677
747
834
648
383
503
304
889
294
732
262
641
533
356
378
307
145
157
464
644
649
554
157
538
646
926
873
79
142
171
741
445
340
97
489
36
676
490
264
366
61
673
467
859
863
571
478
592
190
247
979
283
795
751
681
529
893
616
256
481
489
573
596
345
323
95
396
470
672
122
286
345
602
113
569
260
375
202
166
877
198
123
155
945
150
379
237
970
421
566
10
531
258
809
385
848
969
483
174
202
504
820
814
240
218
695
971
825
935
595
36
198
605
192
285
141
552
340
334
263
98
141
274
443
535
120
182
196
615
577
948
317
128
316
964
373
632
455
870
942
972
738
358
607
40
119
276
513
404
668
791
222
471
208
29
741
554
729
409
179
651
11
914
211
549
997
140
510
784
686
814
382
355
965
863
252
354
342
317
561
885
944
308
234
592
787
399
788
488
863
277
103
457
815
267
303
793
132
355
950
79
767
902
501
230
470
59
57
912
920
756
802
385
491
817
542
193
506
195
693
749
149
63
453
259
96
132
102
928
558
835
504
137
886
675
472
314
275
462
810
957
401
596
896
322
11
922
928
647
762
966
395
413
728
985
642
0
355
145
148
72
356
986
338
576
727
289
923
731
757
573
443
830
445
674
214
381
762
67
147
686
614
635
355
292
892
97
849
529
466
558
11
548
541
931
222
434
751
971
425
948
339
659
368
965
977
634
24
471
309
793
938
961
682
56
497
182
332
409
197
396
643
773
882
336
243
282
882
259
385
118
279
323
976
987
117
801
56
991
580
754
632
478
979
308
963
390
679
815
862
399
20
149
305
757
443
23
36
268
529
710
457
134
496
443
743
867
630
403
207
350
947
875
911
656
697
204
923
524
372
986
556
918
920
519
41
800
338
935
578
435
655
23
707
150
784
911
757
134
903
305
760
947
915
310
45
626
496
220
185
484
330
685
963
834
759
294
422
771
396
226
985
237
608
275
612
731
917
509
310
689
820
527
601
753
640
558
15
344
843
488
350
355
997
690
382
968
604
719
500
354
677
509
231
612
775
621
511
569
136
215
213
350
162
984
686
613
197
353
145
687
8
885
128
796
858
934
507
810
139
949
271
656
224
684
262
326
498
282
584
219
152
722
248
947
739
496
793
827
695
762
519
377
250
502
786
109
213
278
948
190
631
780
228
810
401
596
43
542
644
149
188
718
742
627
57
962
300
588
872
470
586
772
172
956
941
728
304
903
497
692
310
831
46
209
598
644
229
655
242
96
265
250
390
238
417
476
317
697
434
663
910
627
240
957
493
875
565
502
510
857
435
269
853
41
619
263
897
289
360
753
855
417
269
614
754
678
347
610
0
115
959
253
455
133
320
615
287
689
350
108
673
237
326
525
461
296
154
427
226
622
645
400
757
195
356
860
196
595
928
81
797
556
840
771
144
50
404
55
43
917
244
863
612
456
518
344
385
64
783
224
299
767
289
591
617
596
82
193
161
825
917
380
993
841
642
981
44
347
176
57
584
448
3
859
972
341
129
753
406
525
630
451
338
711
111
330
199
159
651
952
388
275
486
9
16
884
279
605
7
159
465
362
960
223
439
250
11
193
128
694
712
420
163
327
155
875
284
532
843
520
851
29
58
878
502
315
510
411
485
265
726
352
131
747
913
111
76
786
967
504
386
674
195
440
226
128
632
622
475
802
945
251
294
789
245
6
489
61
607
177
214
125
611
19
329
843
53
451
150
399
579
405
832
712
523
268
871
795
55
949
169
257
596
460
801
315
683
46
996
973
254
826
64
812
564
588
47
5
896
102
353
980
964
597
417
933
275
702
870
131
827
356
801
499
225
736
622
292
775
91
811
837
857
130
629
994
917
198
74
909
272
46
882
109
693
540
999
870
96
770
731
109
153
655
904
941
524
145
514
915
157
840
473
570
970
749
579
44
784
942
110
934
279
119
803
135
938
477
678
341
374
226
578
988
700
737
585
51
489
5
761
716
922
506
283
376
789
263
964
781
75
183
438
966
218
315
673
797
583
541
659
935
176
404
999
316
520
151
609
225
507
983
231
676
89
45
420
587
272
357
246
586
497
686
391
503
181
639
656
444
753
408
249
712
420
546
166
618
305
636
348
827
96
211
441
118
630
93
688
399
933
698
612
718
503
359
836
615
500
744
229
663
603
554
341
268
700
682
643
905
12
301
909
37
978
973
761
359
150
61
597
360
337
618
250
5
360
381
458
776
266
481
50
690
937
173
899
503
541
391
43
5
299
630
320
442
37
922
412
210
468
994
132
642
688
9
323
316
808
486
188
327
4
6
533
178
863
720
998
973
363
701
72
699
805
610
186
272
39
348
767
699
804
47
100
401
206
555
957
414
11
507
711
224
766
963
984
962
962
29
339
185
569
344
503
503
579
159
863
425
330
41
732
943
570
969
151
344
918
884
699
416
278
963
598
575
84
52
744
318
565
361
365
17
765
381
701
908
491
958
994
147
964
308
449
346
707
92
97
741
998
353
161
685
779
136
574
136
530
566
490
275
900
808
280
999
161
830
828
974
776
246
328
496
151
473
712
838
386
548
255
282
328
748
603
921
41
134
411
575
3
939
936
877
164
653
65
504
394
81
449
729
326
657
484
757
135
188
7
97
259
828
308
908
688
443
357
633
129
275
248
935
868
457
360
519
584
821
700
209
420
953
513
626
482
779
299
406
346
273
376
503
203
328
981
24
100
241
474
264
321
969
713
702
57
507
221
925
932
980
500
564
762
482
782
989
615
714
344
255
18
725
497
131
532
126
918
152
854
786
104
651
244
589
835
286
782
213
194
435
324
197
774
974
601
360
598
333
513
576
336
452
452
194
885
433
660
200
794
25
635
371
738
77
126
946
274
653
30
563
661
654
245
437
421
259
805
912
491
270
20
122
702
177
684
990
415
894
703
891
989
887
215
542
948
770
3
749
809
829
334
746
656
450
250
719
670
191
562
204
315
341
253
371
279
378
382
900
517
541
751
226
661
230
422
521
475
183
736
858
516
683
194
852
577
554
615
361
293
950
844
106
96
317
479
888
646
851
141
184
434
267
690
522
795
801
611
711
137
175
336
980
368
755
238
31
643
290
313
581
365
779
878
829
944
954
798
357
576
767
614
95
865
706
268
631
837
286
596
724
707
631
104
520
225
649
54
358
170
127
803
247
450
620
805
713
918
697
798
93
192
252
501
451
160
985
823
348
351
480
75
388
477
274
426
754
138
777
925
861
9
412
337
988
793
995
581
258
581
885
180
813
763
532
950
210
754
666
865
158
972
210
581
491
547
917
924
509
104
719
0
448
166
5
431
216
173
118
770
876
891
27
171
208
685
124
780
438
51
217
5
801
329
217
869
581
881
555
186
286
182
471
547
507
620
263
554
855
955
359
695
60
227
54
984
596
561
312
989
61
551
682
391
640
953
482
233
319
12
952
862
880
305
236
994
651
159
677
573
108
431
715
962
916
113
811
821
331
235
772
779
290
882
866
500
968
473
343
147
235
990
73
990
521
396
124
464
538
603
940
532
931
540
326
445
10
24
60
336
169
937
900
411
657
208
77
127
829
892
941
600
639
44
297
93
491
108
961
43
678
724
887
132
658
127
61
61
385
590
840
581
507
652
708
576
87
653
677
980
762
223
688
459
278
891
132
975
450
589
904
237
66
870
106
479
859
443
801
77
77
526
216
406
453
266
112
112
326
805
609
935
140
558
4
298
797
45
415
705
595
330
814
707
322
101
130
308
531
668
969
483
275
260
507
9
963
759
508
69
956
180
954
429
886
308
845
887
766
975
653
654
218
343
181
120
682
141
939
52
941
88
632
137
261
756
490
273
680
630
739
124
812
62
886
977
902
365
86
983
582
830
619
418
939
473
474
402
655
970
935
157
670
984
554
868
897
210
731
258
193
388
283
401
338
63
249
367
182
598
461
430
458
836
620
626
321
684
569
699
531
696
812
130
610
195
186
815
753
298
361
193
178
500
894
927
114
355
277
388
330
99
236
664
629
631
613
512
177
667
62
24
508
11
774
879
100
970
838
720
267
816
449
905
662
227
178
972
328
918
553
931
359
231
561
16
843
129
329
666
478
354
725
796
421
279
832
152
26
796
192
401
658
888
294
998
586
100
433
434
465
812
86
168
361
374
142
643
824
232
908
316
494
934
265
245
682
561
278
554
453
387
709
479
458
198
309
340
481
692
608
342
415
817
106
271
636
525
184
549
424
814
11
432
474
715
864
933
775
563
637
368
476
123
674
102
568
974
417
184
984
31
883
236
400
450
49
37
339
832
884
10
880
89
785
308
849
308
436
793
64
586
976
550
1
721
713
394
510
588
390
837
875
952
822
823
887
937
174
813
235
986
716
910
626
140
907
611
389
550
787
469
514
986
52
993
40
336
23
726
514
484
113
136
765
99
285
708
448
331
925
739
967
424
173
700
516
290
292
842
123
388
543
629
608
984
868
492
599
965
824
304
607
499
725
59
388
213
428
447
911
525
618
124
789
101
106
177
17
649
8
452
262
675
165
180
533
46
772
339
168
460
55
922
369
563
287
92
993
66
998
732
729
401
171
835
342
190
225
161
909
20
676
69
539
758
201
511
623
266
505
435
951
656
362
744
812
561
138
542
115
333
777
439
360
836
857
644
833
758
29
992
276
751
11
441
966
978
151
282
761
550
190
150
218
766
964
440
564
161
74
142
564
58
15
675
226
355
466
123
672
962
417
705
754
766
914
77
171
778
747
185
936
975
335
770
26
121
112
556
774
40
700
550
553
870
262
61
954
464
17
789
568
926
571
713
540
196
588
307
581
259
81
720
110
490
961
795
566
941
548
793
724
600
227
716
165
381
296
289
508
297
747
909
316
316
853
180
133
71
613
346
704
640
741
474
1
73
904
115
792
696
482
459
580
679
284
916
837
578
930
155
132
448
899
503
289
891
565
310
657
66
458
875
146
334
259
828
764
418
487
536
213
651
879
694
265
687
410
760
781
162
552
814
118
195
669
359
907
861
381
203
452
977
718
468
421
817
862
402
234
7
722
389
865
148
616
597
695
93
193
774
176
280
254
864
855
484
422
834
509
822
106
638
2
184
430
296
861
756
188
96
490
198
525
847
63
175
231
998
90
102
758
753
771
41
464
51
177
249
410
779
100
195
280
4
783
483
533
371
24
995
943
57
253
978
405
48
716
16
729
475
583
852
708
286
322
480
218
756
706
917
59
959
28
776
819
97
151
334
111
673
16
92
884
242
920
206
390
206
820
849
449
504
16
637
888
999
848
826
232
46
949
931
656
960
521
488
623
897
687
869
305
511
497
760
95
127
136
240
851
117
738
961
989
379
523
580
725
82
306
530
966
263
574
9
106
636
230
80
679
495
634
332
422
768
305
469
229
268
983
499
680
887
683
474
360
782
107
516
391
122
388
525
23
177
561
234
287
222
391
963
321
185
316
335
483
329
170
295
752
53
83
139
658
946
442
528
30
903
356
619
771
924
257
247
712
977
115
466
290
467
458
222
624
585
369
771
723
500
640
977
748
245
599
299
172
929
716
984
18
143
458
347
21
939
470
419
294
771
806
124
432
182
305
540
15
804
413
202
362
207
337
888
431
89
503
585
538
537
941
973
1
77
177
258
639
971
959
661
219
674
776
286
516
707
8
58
436
637
596
81
149
478
703
439
908
597
400
584
857
452
425
628
640
292
414
675
247
368
775
562
764
67
628
915
379
430
677
499
649
522
59
260
816
811
150
867
607
173
604
564
692
416
915
953
617
127
259
978
113
911
379
870
173
83
270
647
704
404
682
228
587
861
197
344
733
380
404
343
307
420
841
449
64
48
592
167
33
123
878
459
88
891
95
444
970
907
98
6
455
71
283
760
126
939
622
559
874
220
474
224
182
456
490
843
968
433
379
419
324
132
458
737
832
56
814
440
543
674
533
340
301
446
134
780
894
207
34
118
451
903
783
329
442
531
746
518
24
30
737
632
590
902
355
394
374
579
109
552
600
219
841
725
117
930
708
851
879
215
437
282
635
90
189
79
644
218
40
302
893
403
422
595
931
844
181
457
789
998
943
957
137
313
372
533
596
465
956
170
237
501
211
485
758
672
537
702
192
664
709
783
115
292
429
887
951
587
381
274
161
23
609
614
37
881
369
840
5
502
240
125
475
950
641
949
257
205
927
425
666
59
534
765
364
838
499
936
437
287
101
777
71
178
743
140
426
927
492
626
868
709
317
655
95
534
833
108
39
62
90
92
646
997
992
188
302
684
860
268
875
724
91
426
771
249
565
638
58
446
681
279
150
747
199
604
476
737
913
527
989
925
903
116
136
283
541
152
317
474
940
229
355
693
354
9
183
122
718
861
523
571
372
483
62
530
753
521
277
962
788
987
150
528
1
445
764
521
459
997
212
44
742
671
675
352
182
658
722
464
815
976
959
67
242
115
209
569
656
914
919
214
246
403
510
211
421
794
174
786
181
896
15
7
470
887
661
279
483
481
909
376
339
609
347
927
821
225
114
25
391
602
95
873
35
106
986
16
159
856
433
91
64
555
395
158
2
16
910
775
949
410
6
501
904
540
75
38
291
218
549
320
940
62
543
39
808
70
21
133
291
346
691
40
838
563
715
206
252
415
178
707
57
257
624
971
807
454
667
707
327
930
967
993
808
329
916
916
159
305
315
109
420
29
902
221
188
716
812
857
504
568
349
241
74
339
32
926
359
42
383
369
645
606
603
864
234
488
554
523
478
929
705
597
39
764
343
974
487
987
129
525
820
885
763
579
787
10
465
939
906
453
387
397
81
552
446
457
484
478
109
337
536
457
171
152
863
644
363
62
18
602
94
501
922
53
896
182
186
179
536
533
997
683
842
387
888
269
187
257
147
24
616
74
649
341
404
802
265
560
100
427
345
230
504
638
998
330
920
590
675
858
520
496
291
495
522
310
508
146
319
451
242
289
473
290
765
512
96
95
665
341
855
23
0
740
794
963
982
977
262
478
832
860
701
808
25
213
581
76
51
513
916
636
191
766
507
68
585
112
195
900
34
670
424
446
667
486
969
928
964
933
48
380
654
475
932
434
931
115
609
559
520
256
993
414
659
202
361
341
903
96
418
979
529
504
379
462
391
994
416
521
164
210
776
466
450
300
784
249
820
210
304
324
575
793
407
15
933
858
217
649
637
620
601
43
938
638
723
385
222
458
83
490
91
598
940
165
807
44
862
129
105
224
503
759
460
378
940
43
199
633
525
308
422
544
379
605
385
829
678
596
302
292
247
432
69
722
934
376
921
181
465
767
558
553
2
731
403
229
924
356
190
948
434
186
838
768
636
47
777
585
655
203
618
546
415
806
790
429
203
929
940
893
709
110
431
696
965
941
185
816
34
272
389
239
524
942
673
152
816
300
286
285
65
666
958
970
160
649
993
808
975
578
724
86
351
66
223
226
596
921
288
29
642
946
1
685
583
653
995
396
893
24
94
381
745
500
190
999
861
972
115
10
230
360
621
278
307
591
626
322
635
435
350
914
385
246
78
387
343
531
321
856
476
655
643
38
436
367
975
28
26
155
120
180
316
727
604
335
395
282
302
973
62
935
654
826
530
881
111
52
16
748
645
544
11
518
329
684
524
701
267
623
44
434
891
709
797
626
179
487
613
166
773
631
88
304
388
201
914
478
841
20
622
171
221
896
925
176
942
410
678
434
144
3
286
565
921
135
893
591
552
248
685
831
323
867
951
67
20
162
436
273
416
96
932
558
84
908
343
18
180
637
318
796
825
764
517
401
445
950
855
544
318
504
438
161
902
501
693
940
491
331
660
47
415
364
448
191
438
672
332
134
95
920
48
957
426
637
836
937
876
55
881
730
2
266
276
169
79
546
992
31
691
415
735
666
155
627
748
794
495
521
248
562
333
80
856
59
631
132
983
514
498
174
365
65
238
585
956
562
669
269
434
440
354
114
768
176
520
370
766
485
356
345
208
394
808
360
105
135
20
692
531
598
995
166
752
88
983
35
809
577
634
316
784
618
763
808
707
605
945
284
840
642
103
565
175
376
244
725
297
16
374
17
27
19
186
283
503
972
130
451
495
488
531
168
350
666
986
37
141
907
523
486
695
231
350
993
658
498
278
74
675
769
239
87
140
77
60
154
524
849
498
597
923
389
428
447
280
740
283
396
954
632
554
244
439
222
828
458
540
59
642
244
306
581
925
290
401
862
364
599
372
955
771
981
752
292
944
901
778
452
331
3
788
959
737
632
708
691
189
562
650
967
748
446
899
489
883
774
79
52
679
397
747
206
737
350
939
199
348
101
896
973
676
21
186
37
941
169
850
500
557
374
631
987
351
565
851
313
757
735
984
498
457
17
981
69
840
934
639
508
956
612
22
188
844
686
5
524
610
553
477
699
528
787
143
802
136
765
676
72
399
577
187
868
597
166
61
37
444
120
505
670
827
917
519
957
190
410
635
674
267
852
113
581
35
155
15
384
155
489
211
908
622
880
657
455
993
785
889
282
986
472
564
833
934
581
65
500
350
902
248
547
549
503
281
46
136
612
778
66
299
533
532
255
788
720
585
606
734
269
180
264
557
890
452
858
272
55
558
525
88
956
262
185
515
526
859
258
253
360
804
842
37
806
899
342
87
853
268
565
571
191
953
523
729
402
270
900
334
424
364
11
384
673
436
98
827
780
569
84
861
997
178
158
604
104
291
405
882
547
328
473
210
138
613
534
330
452
565
611
988
851
957
331
923
641
339
937
214
381
40
361
868
349
56
922
389
38
434
295
505
391
440
405
575
163
501
286
996
524
589
75
606
557
846
841
931
136
113
483
691
47
597
941
679
806
224
520
308
220
131
625
424
635
441
645
208
941
667
511
619
206
259
953
951
497
123
697
606
51
778
882
588
59
314
84
416
811
153
550
21
192
905
304
963
516
14
53
967
189
548
917
92
647
403
360
132
276
416
902
591
132
57
140
38
519
868
2
597
143
124
895
251
123
954
197
527
574
692
482
936
551
508
147
73
689
584
309
736
466
529
766
802
64
298
565
805
47
647
322
552
16
975
336
131
860
456
63
783
726
326
62
873
686
799
94
872
513
862
122
552
46
833
811
843
579
426
815
108
230
191
945
415
361
510
692
464
268
384
560
518
614
448
656
908
774
577
218
292
899
369
525
416
12
406
577
527
690
580
152
952
233
416
763
445
877
219
551
903
802
726
166
938
787
583
929
149
684
742
179
537
643
582
761
643
401
747
526
632
247
492
43
868
35
997
291
863
274
37
181
44
255
966
875
982
618
94
431
778
148
129
997
844
950
57
811
183
129
115
996
364
696
495
973
813
537
300
647
839
971
981
323
602
34
220
875
439
453
506
645
149
193
472
227
167
382
748
565
461
711
692
569
510
247
912
848
591
999
167
433
178
644
953
979
582
373
980
180
135
938
542
911
42
47
877
906
896
624
670
933
956
224
184
662
890
858
548
18
965
992
500
142
621
825
957
980
340
420
810
576
924
139
286
50
159
300
261
214
153
913
664
663
990
311
948
594
452
91
390
294
468
984
989
298
371
214
579
127
103
756
761
836
577
86
175
961
166
657
653
907
760
739
464
37
423
840
332
40
416
360
227
361
80
140
807
873
712
471
498
882
700
289
335
836
49
405
700
392
347
949
855
172
208
540
386
941
461
737
476
435
419
603
13
414
957
104
694
94
736
776
995
40
783
646
750
748
898
134
650
515
747
497
928
142
702
990
137
962
698
220
96
192
239
330
267
425
790
295
294
470
159
93
692
533
332
311
932
31
192
164
948
23
618
388
324
941
564
471
617
233
939
981
484
147
642
744
798
934
863
837
243
613
474
922
49
61
414
481
987
147
261
970
550
383
364
975
599
389
304
785
590
588
11
249
676
120
151
416
829
930
278
111
913
927
499
515
189
181
337
424
808
178
783
982
885
727
84
361
77
130
212
218
294
1
647
955
539
930
474
808
497
32
277
769
148
95
496
988
220
0
483
983
223
769
232
467
124
380
23
684
33
879
750
565
266
683
603
736
383
246
975
35
640
692
561
430
7
378
28
81
803
275
750
347
748
379
894
468
984
833
504
620
241
689
577
21
712
407
194
923
778
944
443
77
725
530
125
363
968
412
219
686
749
40
222
367
707
277
132
559
300
250
533
182
327
332
721
456
139
664
241
241
370
876
848
881
997
39
902
563
793
225
634
503
222
69
152
31
656
892
158
399
556
827
175
758
201
52
987
665
992
522
315
30
25
813
868
77
835
478
872
931
312
997
731
816
675
270
216
953
711
970
289
296
357
385
317
471
881
492
201
771
930
673
286
173
436
321
874
652
972
435
326
958
583
35
947
918
31
613
922
191
587
395
415
982
370
591
841
541
452
530
409
20
677
106
276
962
823
506
502
466
219
931
661
993
915
552
167
131
199
656
217
853
546
501
726
389
824
809
424
133
478
392
141
895
814
872
33
554
806
181
636
675
700
777
152
127
848
952
650
724
294
586
322
384
582
530
160
49
754
187
517
867
372
331
99
448
377
815
194
417
901
773
969
171
764
593
781
309
466
919
760
110
841
455
929
811
861
639
835
382
805
834
405
802
687
766
799
195
512
932
955
482
592
184
679
510
470
432
334
374
677
369
797
3
458
404
921
963
1
640
722
552
203
513
524
919
782
23
275
515
481
393
808
418
211
448
580
40
279
184
391
415
45
849
686
112
568
12
55
659
831
113
538
787
219
221
558
421
820
736
924
438
880
852
220
716
97
698
547
461
314
119
166
196
902
508
653
122
5
883
270
744
291
189
885
339
86
376
726
945
661
134
175
167
40
353
380
661
920
114
248
457
67
201
404
832
587
398
880
275
597
230
204
38
393
777
129
724
899
840
624
830
100
693
870
882
117
986
996
832
922
99
975
592
383
776
504
943
26
218
786
553
876
519
738
72
501
329
536
954
835
968
554
1
527
144
911
211
596
397
991
418
684
875
68
278
233
754
740
830
501
526
470
78
935
772
703
267
443
641
320
881
300
477
158
261
448
620
717
158
536
677
18
414
219
756
924
767
774
498
245
289
642
788
723
136
713
33
13
962
166
492
764
53
937
714
313
847
916
501
709
888
238
871
568
353
57
499
521
160
137
917
31
411
195
313
362
882
303
488
793
353
356
968
265
627
127
315
806
690
232
399
793
891
593
462
198
143
787
923
833
139
262
101
773
769
773
913
688
719
52
63
166
45
56
431
681
381
137
212
26
107
654
790
574
308
965
118
648
491
989
66
879
669
410
328
108
246
924
143
194
261
613
841
914
986
957
422
953
848
868
506
737
566
171
893
625
111
887
827
722
569
803
498
183
771
360
17
855
127
468
281
619
359
29
243
334
835
176
688
454
601
603
320
622
806
499
978
421
256
210
642
935
670
656
584
821
255
997
421
475
479
793
985
159
16
8
568
961
957
565
883
235
242
594
946
510
279
265
543
46
995
907
646
291
213
978
792
278
246
580
143
268
627
375
772
426
726
755
828
845
547
345
761
844
504
414
28
605
942
243
56
504
509
29
347
292
284
604
814
372
309
698
443
566
846
129
749
320
36
169
819
511
442
790
639
685
568
378
851
622
71
468
571
207
400
964
349
884
572
281
165
869
358
962
909
684
573
693
106
893
486
959
778
778
542
721
689
410
316
147
146
414
909
183
706
720
697
853
577
72
499
927
410
396
127
976
914
203
651
13
805
366
128
528
107
251
194
397
562
40
522
804
413
904
29
194
50
917
533
411
946
931
741
160
865
285
114
808
549
246
741
391
683
357
525
72
269
678
266
496
207
281
724
185
113
514
186
39
575
924
918
747
828
226
637
649
870
652
149
328
882
626
63
69
808
104
115
396
217
974
995
693
773
3
168
967
313
542
760
171
285
536
962
344
372
545
600
438
540
413
378
745
102
395
892
276
647
890
213
399
357
824
168
663
701
833
712
185
969
40
581
955
64
701
715
38
909
571
809
83
145
117
575
321
387
372
560
520
334
279
735
62
268
184
30
44
454
447
578
516
493
349
330
369
755
671
758
458
867
525
205
68
607
654
758
979
447
970
856
685
199
396
101
380
258
825
577
878
883
929
417
451
826
361
510
242
667
507
104
159
474
963
767
677
523
622
301
436
654
585
760
215
943
707
611
334
267
320
868
899
231
340
736
714
739
912
347
425
620
11
36
818
967
464
148
202
880
488
535
479
138
452
987
378
594
618
301
638
188
769
732
645
975
482
781
390
772
493
949
852
49
965
141
286
181
849
479
902
364
592
951
225
729
664
333
98
635
803
327
515
888
431
244
193
159
289
819
474
682
685
73
646
840
844
153
535
56
874
885
359
177
602
555
413
607
649
716
811
223
412
70
366
60
583
784
707
458
812
589
307
464
483
2
651
211
780
882
114
229
862
690
519
748
507
990
735
798
402
657
408
682
600
876
829
546
333
278
23
686
127
513
724
314
365
45
366
151
361
598
66
422
114
809
436
360
821
748
852
932
352
474
799
736
340
710
140
664
716
711
112
485
382
946
625
852
116
326
60
327
615
848
380
337
842
78
104
147
870
929
791
348
511
315
442
317
506
608
814
410
401
434
340
412
981
716
727
355
759
8
474
417
707
260
419
338
697
750
344
823
577
192
684
706
962
192
966
348
648
278
295
434
320
136
430
150
745
483
673
362
712
759
162
151
831
381
292
227
12
997
376
841
146
207
888
955
582
459
759
34
328
157
972
486
852
856
97
873
500
195
332
293
980
0
433
430
401
777
274
994
447
638
140
413
549
49
143
90
207
163
234
195
744
663
808
393
754
420
227
327
284
16
211
33
6
687
811
618
428
235
41
67
829
341
256
767
199
338
708
979
384
898
121
163
27
857
287
975
470
208
118
477
932
646
299
633
955
527
796
31
324
47
958
408
219
472
544
274
666
270
595
794
350
652
736
950
413
112
438
205
299
657
575
815
96
521
558
873
775
493
616
776
69
993
60
71
868
280
719
108
756
905
128
524
405
278
981
639
507
902
705
478
950
778
771
169
172
589
835
53
926
764
403
434
500
45
151
827
590
747
243
415
624
239
192
316
680
771
603
867
999
193
602
246
186
184
652
350
965
78
891
530
187
745
824
625
499
591
948
128
666
893
623
671
730
828
567
254
324
944
550
990
839
531
223
762
564
903
607
835
485
896
101
539
186
847
549
233
312
507
335
163
399
609
886
666
654
309
192
151
893
553
937
819
558
442
932
476
376
218
303
580
898
911
786
468
361
123
236
461
630
565
610
279
79
316
733
602
744
652
223
234
270
409
49
400
640
360
148
203
570
541
562
389
671
511
160
361
226
16
235
843
873
577
259
872
671
914
153
724
925
78
72
739
516
413
67
463
809
443
619
984
821
421
995
249
392
508
506
815
490
427
508
541
653
691
6
458
778
373
844
580
335
167
184
862
874
568
657
165
5
805
302
728
398
470
69
518
497
563
13
625
772
23
748
32
247
959
38
210
574
36
739
990
428
643
739
560
597
398
760
206
817
172
208
440
120
723
142
942
142
598
908
11
869
89
535
655
785
761
519
859
716
785
162
766
7
935
852
948
761
461
588
877
471
179
566
732
352
737
488
774
508
794
132
890
513
101
329
488
401
797
326
994
811
168
141
79
612
53
407
310
122
422
649
144
821
325
355
766
202
763
769
553
429
924
664
833
195
950
46
621
258
399
70
441
277
918
599
470
903
138
569
115
315
608
211
761
830
936
155
188
106
438
747
205
927
558
500
428
672
192
690
227
16
948
940
974
223
359
166
135
389
83
37
118
873
980
270
557
278
303
907
1
155
477
835
100
5
213
581
568
828
592
49
974
647
958
771
524
620
694
101
573
392
114
223
291
47
185
14
623
449
6
38
97
626
533
781
323
587
478
142
79
146
98
502
633
739
34
215
832
241
519
895
222
590
517
692
134
858
24
254
965
683
64
377
313
138
481
365
366
950
75
356
159
207
1
599
634
576
621
213
420
658
288
993
316
210
846
647
756
894
352
132
833
25
155
743
723
312
502
111
856
712
858
930
684
15
234
742
747
283
545
504
670
18
50
720
164
504
99
93
744
519
395
250
152
382
474
900
878
984
368
543
295
439
733
828
264
589
312
185
833
631
603
781
850
870
267
198
57
812
966
745
398
352
493
789
926
725
497
837
859
933
42
512
245
261
522
527
353
798
247
298
423
912
768
951
130
2
375
720
353
858
341
912
218
213
571
642
806
508
148
941
472
636
672
368
351
480
507
38
570
341
757
502
195
530
602
690
156
570
233
402
78
511
370
477
585
60
721
819
518
415
327
673
944
937
543
953
160
355
102
542
192
88
955
545
391
897
7
867
115
649
278
936
117
773
243
92
102
607
226
293
552
384
566
316
527
279
291
281
198
43
670
770
917
504
184
423
840
513
409
309
492
75
961
446
514
890
394
346
894
947
642
164
793
972
861
986
858
267
559
850
235
386
350
182
631
36
782
428
810
887
638
685
433
766
375
272
57
977
277
970
395
387
558
739
172
224
40
424
787
489
623
641
476
374
452
487
554
206
121
652
753
46
184
22
504
860
332
969
741
414
959
320
211
396
338
816
71
343
547
169
456
556
809
530
757
505
899
528
384
515
166
507
872
242
965
453
940
401
627
831
291
229
636
417
761
714
321
406
876
413
706
450
653
57
870
769
657
9
78
590
431
455
880
756
892
431
8
836
50
251
944
324
79
779
271
144
994
272
656
664
992
382
865
342
893
4
876
906
222
377
155
828
194
965
292
917
353
873
988
18
61
420
520
758
805
66
446
898
889
227
514
28
527
686
669
826
251
504
295
769
350
157
541
230
526
82
390
408
739
580
807
608
113
48
814
399
705
232
388
970
378
503
660
140
501
729
40
97
678
98
634
466
446
194
128
889
429
193
505
890
93
700
140
293
106
452
871
340
982
48
29
621
761
855
809
341
197
228
815
495
719
374
346
576
978
290
512
800
717
895
529
184
45
102
550
882
933
404
575
353
825
510
501
718
75
632
454
948
796
482
438
153
124
431
171
473
701
731
849
144
897
696
267
892
557
77
523
669
269
356
833
82
830
974
696
233
714
110
310
387
926
30
786
906
984
386
447
663
908
647
647
516
638
559
83
387
441
709
998
641
750
615
586
859
473
333
914
363
13
580
750
535
959
183
869
574
991
74
629
784
59
356
134
217
207
522
164
665
951
362
531
51
117
690
813
224
877
957
943
743
773
15
394
260
634
870
964
154
222
445
295
614
310
653
618
26
616
274
899
266
369
72
14
974
868
473
423
476
95
108
859
178
592
370
276
645
965
784
564
489
696
37
721
222
833
615
367
923
981
934
867
489
205
820
907
799
113
647
955
693
627
221
554
335
65
875
51
296
466
138
567
96
929
670
416
948
455
300
593
577
755
424
73
308
509
0
142
240
816
585
54
13
637
308
112
898
908
12
409
616
134
54
835
650
726
109
392
868
909
890
140
255
469
637
720
406
613
426
483
288
883
706
347
154
337
941
433
928
262
81
610
56
580
234
570
316
441
934
52
282
399
387
740
801
351
728
173
802
587
229
798
321
176
847
855
670
898
644
57
84
185
103
812
454
82
305
290
513
841
741
392
906
369
333
565
852
694
966
939
293
49
237
67
975
315
684
861
374
237
870
476
707
356
354
496
924
618
335
213
117
535
309
537
863
759
27
643
355
852
827
7
140
580
366
670
310
94
349
610
631
678
325
295
816
120
894
596
311
585
792
369
621
256
523
291
495
532
649
739
275
295
994
908
977
968
668
467
483
591
621
593
211
489
703
284
207
163
78
420
323
907
961
401
668
417
834
249
668
213
412
223
119
747
552
671
849
401
508
30
834
169
313
351
31
537
999
232
821
896
7
323
332
355
508
328
735
558
127
408
92
454
790
876
484
98
489
908
480
906
41
443
197
472
356
288
742
283
177
151
318
795
660
782
30
566
159
548
409
209
846
275
353
274
845
622
125
642
632
438
538
976
414
15
619
433
363
647
22
891
537
406
460
944
675
208
61
785
757
600
758
224
267
647
88
559
620
250
398
422
602
345
843
255
737
204
413
559
74
728
434
565
20
959
653
228
397
926
381
189
306
231
427
758
457
479
285
39
983
362
228
91
195
34
694
947
949
463
337
478
221
392
917
709
564
656
565
786
993
779
354
545
826
7
803
311
620
72
716
255
490
556
498
588
894
197
313
288
871
292
515
930
631
859
445
366
759
747
271
951
713
660
703
304
410
675
43
536
410
349
913
299
689
698
157
733
592
597
751
89
321
264
357
200
620
444
836
133
544
917
303
21
330
612
314
805
628
543
462
747
805
451
808
278
617
970
208
346
253
415
395
107
321
149
6
403
402
648
264
646
203
259
866
706
87
800
237
101
790
983
304
799
202
534
973
470
804
302
63
703
784
590
114
74
106
776
703
511
835
178
859
893
652
279
899
346
349
220
437
60
659
167
766
301
180
9
228
653
592
340
727
801
446
951
697
146
815
934
398
937
844
918
898
102
831
215
422
615
176
811
559
909
559
931
747
139
240
512
440
656
120
94
43
195
930
173
58
422
71
705
631
500
232
242
257
860
689
542
264
959
299
609
317
62
758
407
100
644
698
848
751
154
640
122
480
186
458
285
266
292
851
855
476
308
220
855
332
940
748
567
828
445
323
115
620
505
716
487
772
876
901
717
395
737
380
394
217
745
8
594
221
86
504
234
764
669
508
52
231
930
958
96
895
109
916
293
960
291
838
871
687
736
126
178
729
687
784
692
178
788
272
569
911
208
3
112
360
508
227
251
189
457
842
948
404
260
690
26
589
351
862
779
522
842
921
971
670
681
729
339
16
671
575
437
972
576
678
188
550
332
422
664
500
463
876
70
680
85
424
23
966
947
226
191
216
880
833
205
92
979
42
811
742
606
329
739
359
344
263
161
890
185
9
184
15
582
208
804
990
812
402
119
177
89
117
31
438
838
403
436
776
161
183
95
553
134
106
542
494
429
1
933
927
560
263
390
569
875
915
977
674
822
22
326
433
302
275
599
671
879
723
651
478
838
820
757
948
514
189
427
459
667
824
482
273
403
845
855
519
442
303
969
945
13
454
690
601
710
8
115
663
294
260
223
729
559
901
864
619
47
743
22
972
342
193
366
781
512
351
199
254
310
330
736
678
775
118
68
598
221
361
696
259
850
307
651
527
560
526
324
707
327
811
602
755
314
998
612
182
483
696
977
928
917
783
25
174
208
324
307
677
758
568
608
719
908
692
868
155
485
243
269
583
360
694
355
741
34
485
48
256
510
677
913
658
521
746
442
483
650
122
808
168
222
131
256
533
26
762
797
376
417
793
15
300
494
340
654
918
627
529
381
688
823
769
132
400
143
423
646
540
763
108
794
716
385
989
220
83
423
986
771
228
121
163
366
973
507
521
991
410
689
102
953
393
834
994
974
878
490
595
513
91
854
312
835
189
699
34
65
493
583
767
386
177
649
613
678
831
989
616
217
149
447
872
591
480
513
185
106
960
240
192
431
660
224
615
903
95
23
598
625
102
143
935
140
772
213
731
83
85
399
701
505
835
51
691
491
440
730
517
573
617
603
932
92
963
348
864
755
254
635
221
714
770
666
795
704
769
313
385
825
579
181
430
666
432
327
91
313
214
736
72
602
743
824
994
532
365
726
317
475
917
969
692
414
982
596
810
608
156
832
356
292
854
156
749
729
8
448
741
77
541
631
839
534
252
443
998
963
478
570
379
354
794
997
421
442
373
506
830
920
25
447
286
328
689
959
455
873
54
882
668
387
73
852
350
156
638
783
620
909
449
916
974
988
815
581
686
99
876
110
604
53
324
298
541
721
824
874
303
439
560
896
612
567
55
634
568
273
567
730
912
727
114
169
841
950
162
156
314
524
582
47
720
899
345
565
380
731
936
954
194
830
152
944
865
957
130
333
2
32
764
854
910
75
709
308
353
436
789
693
773
248
463
302
829
341
276
420
927
906
604
178
956
603
587
412
351
121
127
945
7
262
810
0
707
590
504
402
673
785
101
869
468
573
220
56
776
152
768
882
514
715
297
606
920
577
590
33
10
383
785
963
148
199
403
163
586
988
228
317
791
218
775
871
137
309
392
938
172
615
755
236
817
576
418
922
395
301
811
882
495
459
588
542
621
53
548
69
495
130
671
35
764
610
893
937
650
758
783
280
6
887
815
222
665
822
244
915
801
3
87
629
688
418
357
951
622
215
424
448
230
866
884
680
327
725
68
117
953
867
502
196
642
619
18
380
100
833
218
403
237
798
334
612
243
790
535
384
890
567
845
129
787
145
848
926
106
489
167
832
884
399
481
908
75
784
958
297
600
214
80
513
420
186
627
228
307
772
590
7
325
569
566
12
946
548
454
539
442
63
956
950
22
400
739
291
582
409
48
698
600
255
467
406
994
876
980
961
604
0
815
303
949
755
942
445
968
189
130
394
642
918
414
299
291
425
536
317
583
867
580
267
696
866
118
408
322
544
300
790
651
879
478
229
636
446
275
415
520
889
249
872
776
512
80
170
536
254
732
23
994
905
334
496
877
9
838
474
841
145
526
416
394
651
134
691
327
248
255
271
958
469
230
679
733
801
672
977
615
371
108
715
330
456
794
197
537
794
542
880
59
532
640
860
623
41
587
55
881
941
104
665
598
307
206
453
520
70
184
234
294
331
60
824
483
427
723
925
642
127
762
135
3
196
564
412
388
454
9
861
295
904
696
673
100
33
604
789
475
42
214
122
240
252
663
407
475
863
407
957
850
78
295
642
614
262
647
540
87
204
709
975
973
950
548
82
324
529
533
756
835
154
948
132
353
833
945
478
652
312
729
49
495
689
248
701
399
789
150
218
963
737
59
259
246
330
384
673
651
553
380
77
339
458
7
645
541
390
174
800
91
873
324
637
876
262
586
556
572
142
547
904
973
39
718
956
359
857
800
259
643
484
325
444
8
501
323
890
248
831
579
753
923
438
389
116
110
679
16
668
855
76
251
235
71
988
722
359
108
142
384
897
602
389
605
669
726
727
684
476
431
456
268
310
977
556
337
675
535
258
190
88
12
668
329
31
46
186
276
382
128
302
763
98
867
466
447
797
288
446
78
26
932
477
820
129
697
967
866
742
789
994
433
636
864
721
867
415
647
903
479
639
248
132
463
488
474
438
407
167
315
483
772
367
533
419
895
544
854
930
293
153
322
867
836
789
559
128
452
833
141
869
335
901
136
397
391
9
395
797
618
327
275
652
68
174
525
700
218
719
117
578
478
416
940
416
828
886
37
244
712
783
820
754
345
709
67
941
190
983
835
834
660
953
907
901
433
76
552
229
408
217
594
650
121
750
246
207
628
163
101
922
738
86
48
553
968
242
286
263
465
62
812
627
767
378
632
921
254
13
258
346
597
521
992
847
10
96
644
211
600
880
684
910
39
866
437
669
617
112
725
103
517
404
860
515
721
309
246
501
624
356
272
423
950
670
940
436
524
858
251
656
957
442
13
499
252
430
680
492
631
883
835
418
764
11
134
14
942
862
248
36
444
471
868
352
262
1
737
310
93
600
709
866
358
204
381
709
211
855
156
9
487
512
317
844
811
904
918
96
929
898
571
267
964
608
100
450
114
856
269
352
776
13
328
565
456
274
704
498
489
57
436
512
227
402
903
848
718
271
24
197
542
852
771
397
189
724
363
303
45
38
178
255
872
431
710
805
502
352
442
667
754
160
382
933
18
493
612
594
153
740
825
73
106
872
787
623
419
95
245
332
100
391
76
294
530
832
709
670
325
915
310
102
18
0
77
379
197
614
785
568
48
170
867
904
408
971
352
101
2
332
886
182
690
976
552
314
915
524
224
68
240
734
297
295
989
684
950
952
939
159
457
75
598
383
788
6
933
311
430
26
286
720
730
583
307
60
618
503
965
25
972
523
219
798
118
713
87
345
787
759
405
390
50
809
953
701
567
807
172
866
248
690
370
304
254
757
76
231
902
488
405
665
451
551
699
749
90
481
323
19
586
564
977
407
101
582
3
728
488
655
633
912
307
170
356
421
157
634
560
342
927
577
599
106
883
892
347
249
385
882
551
294
757
763
402
36
729
469
866
294
35
242
169
539
90
766
207
814
754
804
483
387
898
207
879
406
750
46
359
502
294
65
405
382
946
384
645
107
16
835
56
625
252
396
815
361
347
649
590
469
427
629
874
37
866
702
960
521
90
313
180
534
286
753
603
550
372
79
141
576
535
412
466
398
519
897
24
525
71
151
94
96
508
667
177
869
349
777
944
601
258
9
341
111
125
495
187
35
375
604
47
445
393
850
628
313
961
13
335
980
61
445
180
281
391
680
266
24
28
653
642
0
794
258
431
748
966
175
170
905
784
291
710
896
524
444
370
782
269
357
680
48
927
439
394
220
681
306
956
859
614
373
785
211
247
537
69
305
278
691
900
164
57
953
78
684
441
612
984
368
47
755
16
791
866
8
565
599
799
428
936
418
21
381
379
750
907
272
236
331
145
258
525
455
160
592
276
973
191
502
562
877
683
260
107
492
354
981
425
980
84
89
268
207
526
603
762
309
508
604
383
741
226
526
1
655
952
973
819
680
112
415
604
79
573
301
579
932
778
569
618
592
363
583
956
736
76
960
987
275
13
258
306
139
510
371
212
656
85
220
648
192
961
339
850
963
801
432
966
674
519
201
803
87
906
609
770
760
980
683
738
53
242
812
266
233
777
398
322
502
475
161
206
361
925
365
271
860
4
234
944
842
500
800
426
341
245
907
868
939
218
286
971
159
183
440
290
836
446
931
366
69
982
57
633
575
457
993
993
744
633
752
388
24
894
467
634
173
734
592
430
854
793
173
506
173
968
448
247
255
490
949
782
520
203
70
542
879
705
597
370
401
868
484
982
905
297
902
174
813
635
278
19
427
47
141
579
355
818
177
396
86
137
105
876
236
692
829
480
748
760
954
815
188
521
812
755
208
0
579
131
575
518
656
560
65
301
329
642
820
535
464
949
230
822
218
478
461
431
971
460
210
396
598
149
604
348
434
942
57
256
729
526
991
661
90
919
897
490
542
882
437
453
104
927
770
990
133
638
311
127
530
821
46
262
693
862
95
537
428
411
721
709
58
993
155
707
392
279
281
152
960
49
874
207
420
557
262
309
421
809
261
56
376
439
75
213
554
431
319
